Predicting Hit Songs of 2020
…
Imports

We will use the following libraries throughout our project:

library(ggplot2)
library(dplyr)
library(tidyverse)
library(scales)

Loading Data

data <- read.csv(file="~/Downloads/Spotify-2000.csv",header = TRUE, sep = ",")
as_tibble(data)

## # A tibble: 1,994 x 15
##    Index Title Artist Top.Genre  Year Beats.Per.Minut Energy Danceability
##    <int> <fct> <fct>  <fct>     <int>            <int>  <int>        <int>
##  1     1 Sunr Norah adult st  2004              157     30           53
##  2     2 Blac Deep  album ro  2000              135     79           50
##  3     3 Clin Goril alternat  2001              168     69           66
##  4     4 The  Foo F alternat  2007              173     96           43
##  5     5 Wait Bruce classic   2002              106     82           58
##  6     6 The  City  alternat  2004               99     46           54
##  7     7 She  Maroo pop        2002              102     71           71
##  8     8 Knig Muse   modern r  2006              137     96           37
##  9     9 Mr.  The K modern r  2004              148     92           36
## 10    10 With Eminem detroit   2002              112     67           91
## #  with 1,984 more rows, and 7 more variables: Loudness..dB. <int>,
## #   Liveness <int>, Valence <int>, Length..Duration. <fct>, Acousticness <int>,
## #   Speechiness <int>, Popularity <int>
…
Popularity: The higher the value, the more popular a song is

Tidying Data

To make it easier to read, we will be renaming the columns and selecting the attributes that are most important to our analysis:

tidy_data <- data %>%
  magrittr::set_colnames(c("id", "track", "artist", "genre","year", "bpm", "energy", "dance", 
                           "loudness","liveness", "valance", "duration", "acousticness", 
                           "speechness", "popularity"))%>%
  filter(year >= 2010) %>%
  select(artist, track, genre, year, dance, loudness, speechness, popularity)
as_tibble(tidy_data)

## # A tibble: 399 x 8
##    artist      track          genre    year dance loudness speechness popularity
##    <fct>       <fct>          <fct>   <int> <int>    <int>      <int>      <int>
##  1 Claudia De Mag Ik Dan Bi dutch   2010    54      -10          3         53
##  2 De Jeugd V Sterrenstof    dutch   2010    71       -4         11         48
##  3 Joy Divisi Love Will Tea altern  2010    53       -9          4         64
##  4 De Dijk     Mag Het Licht dutch   2010    74      -10          3         43
##  5 Anita Meyer Why Tell Me W dutch   2010    65       -6          6         54
##  6 Charly Low Wonderful Days happy   2010    55      -11          7         37
##  7 Guus Meeuw Dat Komt Door dutch   2010    59      -10          4         57
##  8 Racoon      Don't Give up dutch   2010    28      -13          3         27
##  9 Triggerfin I Follow Rive belgia  2010    67       -9          6         42
## 10 Racoon      Liverpool Rain dutch   2010    45       -7          3         26
## #  with 389 more rows
…
# Replacing all the british genres into one
tidy_data$genre = str_replace_all(tidy_data$genre, "british singer-songwriter", "british music")
tidy_data$genre = str_replace_all(tidy_data$genre, "british invasion", "british music")

# Replacing all the australian genres into one
tidy_data$genre = str_replace_all(tidy_data$genre, "australian psych", "australian music")
tidy_data$genre = str_replace_all(tidy_data$genre, "australian americana", "australian music")
  
as_tibble(tidy_data)

## # A tibble: 399 x 8
##    artist      track          genre    year dance loudness speechness popularity
##    <fct>       <fct>          <chr>   <int> <int>    <int>      <int>      <int>
##  1 Claudia De Mag Ik Dan Bi dutch   2010    54      -10          3         53
##  2 De Jeugd V Sterrenstof    hip hop  2010    71       -4         11         48
##  3 Joy Divisi Love Will Tea rock     2010    53       -9          4         64
##  4 De Dijk     Mag Het Licht indie    2010    74      -10          3         43
##  5 Anita Meyer Why Tell Me W pop      2010    65       -6          6         54
##  6 Charly Low Wonderful Days happy   2010    55      -11          7         37
##  7 Guus Meeuw Dat Komt Door pop      2010    59      -10          4         57
##  8 Racoon      Don't Give up indie    2010    28      -13          3         27
##  9 Triggerfin I Follow Rive rock     2010    67       -9          6         42
## 10 Racoon      Liverpool Rain indie    2010    45       -7          3         26
## #  with 389 more rows

We get a cleaner dataset where we can visualize the general genre that each sub-genre had for every song which will help us visualize the data in more straightforward way.

Deleting some Genres

After giving it some thought, we thought it was best to delete some genres that only appear once in the dataset because it can cause outliers as well as skew our data, and we do not want that, so we decided to remove those genres from our data so we can have a more precise calculation for the top songs in 2020.

new_data <- tidy_data[-c(6, 17, 59, 168, 180, 222, 234, 236, 263, 291, 295, 350),]
as_tibble(new_data)

## # A tibble: 387 x 8
##    artist       track          genre   year dance loudness speechness popularity
##    <fct>        <fct>          <chr>  <int> <int>    <int>      <int>      <int>
##  1 Claudia De  Mag Ik Dan Bi dutch  2010    54      -10          3         53
##  2 De Jeugd Va Sterrenstof    hip h  2010    71       -4         11         48
##  3 Joy Division Love Will Tea rock    2010    53       -9          4         64
##  4 De Dijk      Mag Het Licht indie   2010    74      -10          3         43
##  5 Anita Meyer  Why Tell Me W pop     2010    65       -6          6         54
##  6 Guus Meeuwis Dat Komt Door pop     2010    59      -10          4         57
##  7 Racoon       Don't Give up indie   2010    28      -13          3         27
##  8 Triggerfing I Follow Rive rock    2010    67       -9          6         42
##  9 Racoon       Liverpool Rain indie   2010    45       -7          3         26
## 10 Racoon       No Mercy       indie   2010    77       -6          3         36
## #  with 377 more rows

new_data %>%
  group_by(genre) %>%
  summarise()

## # A tibble: 30 x 1
##    genre                  
##    <chr>                  
##  1 adult standards        
##  2 alternative pop rock   
##  3 australian music       
##  4 big room               
##  5 boy band               
##  6 british music          
##  7 compositional ambient  
##  8 contemporary vocal jazz
##  9 country                
## 10 dance                  
## #  with 20 more rows
…
When we initially looked over at the data, we noticed that the popularity and danceability levels seen in the pop genre were off the chart. We will use hypothesis testing to see if the difference between the popularity rates and danceability rates between genres is significantly high in predicting the top genre in 2020.

Our null hypothesis is that the rates of popularity and danceability is statistically significant between genres. Our alternative hypothesis is that the rates of popularity and danceability is higher in pop than any other genre. We will reject the null hypothesis if alpha is less than 0.05 \((\alpha < 0.5)\).

First, we will gather the data we need:

our_predictions <- group_by(new_data, genre) %>%
  mutate(total_popularity = sum(popularity)) %>%
  mutate(total_danceability = n()) %>%
  select(total_popularity,total_danceability) %>%
  distinct()
our_predictions

## # A tibble: 30 x 3
## # Groups:   genre [30]
##    genre           total_popularity total_danceability
##    <chr>                      <int>              <int>
##  1 dutch music                  657                 16
##  2 hip hop                      750                 13
##  3 rock                        4113                 74
##  4 indie                       1200                 35
##  5 pop                         8590                142
##  6 permanent wave               807                 11
##  7 country                      176                  4
##  8 adult standards              245                  5
##  9 gabba                        107                  2
## 10 soul                        1145                 17
## #  with 20 more rows
…
